<svg width="24" height="24" viewBox="0 0 24 24" fill="none" xmlns="http://www.w3.org/2000/svg">
<path fill-rule="evenodd" clip-rule="evenodd" d="M12.0011 14C11.6555 13.9996 11.3185 14.0039 10.9903 14.0128L10.3457 14.0369C10.0294 14.0521 9.72207 14.072 9.42397 14.0967L8.84014 14.1526C5.12621 14.5577 3 15.7832 3 17.9973C3 20.1155 4.83487 21.3163 8.22291 21.778L8.78589 21.8464L9.37584 21.902C9.57695 21.9184 9.78251 21.9327 9.99248 21.945L10.6355 21.9755C10.7449 21.9796 10.8554 21.9831 10.9669 21.9862L11.6491 21.9984L11.9999 21.9999C12.236 22 12.4678 21.998 12.6953 21.9941L13.3647 21.9761C13.4741 21.9721 13.5824 21.9675 13.6896 21.9625L14.3196 21.926C14.5252 21.9118 14.7264 21.8955 14.9231 21.877L15.4996 21.8153C19.0656 21.3838 20.9994 20.1772 20.9997 18.0001C21.0001 15.6164 18.5454 14.3844 14.2811 14.0774L13.6596 14.0398C13.2372 14.0189 12.7987 14.0063 12.3446 14.0018L12.0011 14ZM11.9991 16C16.6025 16.0046 18.9999 16.8753 18.9997 17.9998C18.9996 18.6392 18.3164 19.1806 16.9128 19.5382L16.5121 19.6311C16.0237 19.734 15.462 19.8176 14.8259 19.8789L14.2624 19.9261C14.1654 19.933 14.0669 19.9394 13.9669 19.9454L13.3483 19.9755C13.2421 19.9796 13.1344 19.9831 13.0252 19.9862L12.3512 19.9984L12.0003 19.9999C11.7633 19.9999 11.5326 19.9977 11.308 19.9936L10.6527 19.975C10.5466 19.9709 10.442 19.9663 10.3389 19.9612L9.73885 19.9251L9.17537 19.8777C6.35829 19.6045 5 18.897 5 17.9973C5 17.0731 6.62025 16.3177 9.73875 16.0789L10.341 16.0403C10.8575 16.0132 11.4103 15.9994 11.9991 16Z" fill="white"/>
<g opacity="0.5">
<path fill-rule="evenodd" clip-rule="evenodd" d="M12 2C9.23858 2 7 4.23858 7 7C7 9.76142 9.23858 12 12 12C14.7614 12 17 9.76142 17 7C17 4.23858 14.7614 2 12 2ZM12 4C13.6569 4 15 5.34315 15 7C15 8.65685 13.6569 10 12 10C10.3431 10 9 8.65685 9 7C9 5.34315 10.3431 4 12 4Z" fill="white"/>
</g>
</svg>
