<svg width="64" height="44" viewBox="0 0 64 44" fill="none" xmlns="http://www.w3.org/2000/svg">
<g clip-path="url(#clip0_224_1558)">
<rect width="64" height="44" rx="10" fill="#EEEEEE"/>
<path d="M0 15H64V29H0V15Z" fill="#E6E7E8"/>
<path d="M54 0H10C3.373 0 0 4.925 0 11V15H64V11C64 4.925 60.627 0 54 0Z" fill="#1B75BB"/>
<path d="M0 33C0 39.075 3.373 44 10 44H54C60.627 44 64 39.075 64 33V29H0V33Z" fill="#29B473"/>
<path d="M11.451 12.3111C10.9376 12.3111 10.4293 12.21 9.955 12.0134C9.48073 11.8169 9.04983 11.5289 8.68691 11.1658C8.32399 10.8027 8.03617 10.3716 7.8399 9.89724C7.64362 9.42287 7.54273 8.91448 7.54299 8.4011C7.54273 7.36428 7.95428 6.3698 8.68714 5.63638C9.42001 4.90295 10.4142 4.49063 11.451 4.4901C11.599 4.4901 11.747 4.5011 11.89 4.5181C11.1958 4.10467 10.403 3.886 9.59499 3.8851C8.41373 3.90996 7.28923 4.39668 6.46261 5.24088C5.63598 6.08509 5.17303 7.21958 5.17303 8.4011C5.17303 9.58263 5.63598 10.7171 6.46261 11.5613C7.28923 12.4055 8.41373 12.8922 9.59499 12.9171C10.4028 12.9161 11.1955 12.6978 11.89 12.2851C11.747 12.3001 11.6 12.3111 11.451 12.3111ZM28.641 3.8811L29.07 4.7581L30.04 4.9001L29.343 5.5831L29.507 6.5471L28.641 6.0901L27.774 6.5471L27.938 5.5831L27.24 4.9001L28.21 4.7581L28.641 3.8811ZM28.641 7.0601L29.07 7.9421L30.04 8.0901L29.343 8.7681L29.507 9.7311L28.641 9.2751L27.774 9.7311L27.938 8.7681L27.24 8.0901L28.21 7.9421L28.641 7.0601ZM28.641 10.2501L29.07 11.1301L30.04 11.2701L29.343 11.9521L29.507 12.9161L28.641 12.4621L27.774 12.9161L27.938 11.9521L27.24 11.2701L28.21 11.1301L28.641 10.2501ZM25.04 3.8811L25.477 4.7581L26.444 4.9001L25.744 5.5831L25.908 6.5471L25.04 6.0901L24.18 6.5471L24.341 5.5831L23.643 4.9001L24.61 4.7581L25.04 3.8811ZM25.04 7.0601L25.477 7.9421L26.444 8.0901L25.744 8.7681L25.908 9.7311L25.04 9.2751L24.18 9.7311L24.341 8.7681L23.643 8.0901L24.61 7.9421L25.04 7.0601ZM25.04 10.2501L25.477 11.1301L26.444 11.2701L25.744 11.9521L25.908 12.9161L25.04 12.4621L24.18 12.9161L24.341 11.9521L23.643 11.2701L24.61 11.1301L25.04 10.2501ZM21.445 3.8811L21.877 4.7581L22.847 4.9001L22.14 5.5831L22.312 6.5471L21.445 6.0901L20.577 6.5471L20.745 5.5831L20.04 4.9001L21.01 4.7581L21.445 3.8811ZM21.445 7.0601L21.877 7.9421L22.847 8.0901L22.14 8.7681L22.312 9.7311L21.445 9.2751L20.577 9.7311L20.745 8.7681L20.04 8.0901L21.01 7.9421L21.445 7.0601ZM21.445 10.2501L21.877 11.1301L22.847 11.2701L22.14 11.9521L22.312 12.9161L21.445 12.4621L20.577 12.9161L20.745 11.9521L20.04 11.2701L21.01 11.1301L21.445 10.2501ZM17.847 7.0601L18.28 7.9421L19.248 8.0901L18.548 8.7681L18.715 9.7311L17.847 9.2751L16.98 9.7311L17.15 8.7681L16.444 8.0901L17.415 7.9421L17.847 7.0601ZM17.847 10.2501L18.28 11.1301L19.248 11.2701L18.548 11.9521L18.715 12.9161L17.847 12.4621L16.98 12.9161L17.15 11.9521L16.444 11.2701L17.415 11.1301L17.847 10.2501ZM14.23 10.2501L14.663 11.1301L15.633 11.2701L14.932 11.9521L15.1 12.9161L14.23 12.4621L13.363 12.9161L13.529 11.9521L12.829 11.2701L13.797 11.1301L14.23 10.2501Z" fill="#E6E7E8"/>
<path d="M0 15H64V17H0V15ZM0 28H64V30H0V28Z" fill="#EC1C24"/>
</g>
<defs>
<clipPath id="clip0_224_1558">
<rect width="64" height="44" rx="10" fill="white"/>
</clipPath>
</defs>
</svg>
