<svg width="20" height="20" viewBox="0 0 20 20" fill="none" xmlns="http://www.w3.org/2000/svg">
<path d="M9.19683 10C9.19683 10.2131 9.2815 10.4175 9.4322 10.5682C9.58291 10.7189 9.78731 10.8036 10.0004 10.8036C10.2136 10.8036 10.418 10.7189 10.5687 10.5682C10.7194 10.4175 10.804 10.2131 10.804 10C10.804 9.78688 10.7194 9.58249 10.5687 9.4318C10.418 9.2811 10.2136 9.19644 10.0004 9.19644C9.78731 9.19644 9.58291 9.2811 9.4322 9.4318C9.2815 9.58249 9.19683 9.78688 9.19683 10V10ZM12.5452 10C12.5452 10.2131 12.6299 10.4175 12.7806 10.5682C12.9313 10.7189 13.1357 10.8036 13.3488 10.8036C13.5619 10.8036 13.7663 10.7189 13.917 10.5682C14.0678 10.4175 14.1524 10.2131 14.1524 10C14.1524 9.78688 14.0678 9.58249 13.917 9.4318C13.7663 9.2811 13.5619 9.19644 13.3488 9.19644C13.1357 9.19644 12.9313 9.2811 12.7806 9.4318C12.6299 9.58249 12.5452 9.78688 12.5452 10ZM5.84846 10C5.84846 10.2131 5.93313 10.4175 6.08383 10.5682C6.23454 10.7189 6.43894 10.8036 6.65207 10.8036C6.8652 10.8036 7.0696 10.7189 7.22031 10.5682C7.37101 10.4175 7.45568 10.2131 7.45568 10C7.45568 9.78688 7.37101 9.58249 7.22031 9.4318C7.0696 9.2811 6.8652 9.19644 6.65207 9.19644C6.43894 9.19644 6.23454 9.2811 6.08383 9.4318C5.93313 9.58249 5.84846 9.78688 5.84846 10V10ZM16.9182 7.09379C16.5398 6.1948 15.9974 5.38789 15.3059 4.69482C14.6193 4.00576 13.8042 3.45804 12.9068 3.08268C11.986 2.69596 11.0083 2.50009 10.0004 2.50009H9.96696C8.9524 2.50512 7.96965 2.70601 7.04551 3.10109C6.15577 3.48031 5.34832 4.029 4.66816 4.71658C3.98342 5.40798 3.44601 6.21154 3.07434 7.10718C2.68928 8.03462 2.49507 9.02066 2.50009 10.0352C2.50578 11.1978 2.78084 12.3432 3.3037 13.3817V15.9263C3.3037 16.1305 3.38484 16.3264 3.52927 16.4708C3.67369 16.6152 3.86958 16.6963 4.07383 16.6963H6.62026C7.65875 17.2192 8.80428 17.4942 9.96696 17.4999H10.0021C11.005 17.4999 11.9777 17.3057 12.8934 16.9257C13.7863 16.5548 14.5984 16.0135 15.2842 15.332C15.9756 14.6473 16.5197 13.847 16.8998 12.9548C17.2949 12.0307 17.4958 11.048 17.5008 10.0335C17.5058 9.01396 17.3083 8.02458 16.9182 7.09379V7.09379ZM14.3885 14.4263C13.2149 15.5881 11.6579 16.2276 10.0004 16.2276H9.97198C8.96245 16.2226 7.95961 15.9715 7.07397 15.4994L6.93333 15.424H4.57608V13.0669L4.50075 12.9263C4.02863 12.0407 3.7775 11.0379 3.77248 10.0285C3.76578 8.3594 4.40364 6.79245 5.5739 5.61222C6.74248 4.43199 8.30449 3.7791 9.97365 3.7724H10.0021C10.8392 3.7724 11.6512 3.93479 12.4163 4.25621C13.163 4.56926 13.8326 5.01959 14.4086 5.59548C14.9828 6.16969 15.4348 6.841 15.7479 7.58764C16.0727 8.36107 16.2351 9.18137 16.2318 10.0285C16.2217 11.6958 15.5671 13.2578 14.3885 14.4263V14.4263Z" fill="#377BE1"/>
</svg>
